…
  # Make sure the new columns are of the correct type
  output$month_number = as.character(output$month_number)
  output$year_number = as.character(output$year_number)
  
  transform(output, month_number = as.integer(month_number), year_number = as.integer(year_number))
  return(output)
}

# create a new variable that store new df with transformed features
aggregated_transactions <- aggregate_transactions(df)
# A tibble: 3,886 x 6
# Groups:   date, industry [470]
# date       industry location monthly_amount month_number year_number
# <date>     <chr>    <chr>             <dbl> <chr>        <chr>      
#   1 2013-01-01 1        1               136081. 01           2013       
# 2 2013-01-01 1        10              188735. 01           2013       
# 3 2013-01-01 1        2               177840. 01           2013       
# 4 2013-01-01 1        3               141632. 01           2013       
# 5 2013-01-01 1        4               221058. 01           2013       
# 6 2013-01-01 1        5               178138. 01           2013       
# 7 2013-01-01 1        6               133400. 01           2013       
# 8 2013-01-01 1        7               231599. 01           2013       
# 9 2013-01-01 1        8               143778. 01           2013       
# 10 2013-01-01 1        9               157416. 01           2013       
# ... with 3,876 more rows
…
